{
  "_uri": "POST api/year-plan",

  "organizationalUnitId": "string",
  "title": "string",
  "shortText": "string",
  "description": "string",
  "attachments": [{
    "name": "string",
    "mimeType": "string",
    "dataBase64": "string"
  }]
}