{
  "_url": "GET /api/pedagogical-plan-activities",
  "_params": "organizationalUnitId (required)",
    
  "items": [{
    "id": "string",
    "title": "string",
    "number": 0,
    "shortText": "string",
    "description": "string",
    "createdAt": "2019-06-18T09:06:58.234Z",
    "isDeletable": "bool"
  }]
}