{
  // Edit functionality
  "_uri": "PUT api/pedagogical-plan-activities/{id}",

  "title": "string",
  "shortText": "string",
  "description": "string",
  "deletedAttachments": ["id"],
  "newAttachments": [{
    "name": "string",
    "mimeType": "string",
    "dataBase64": "string"
  }]  
}