{
  "_uri": "POST api/pedagogical-plan",
  "_link": "http://www.objgen.com/json/models/pNT",

  "organizationalUnitId": "string",
  "title": "string",
  "startDate": "2019-06-18T12:28:47.421Z",
  "endDate": "2019-06-18T12:28:47.421Z",
  "yearPlanIds": [],
  "frameworkPlanIds": [],
  "activityCardIds": [],
  "customFields": [{
    "order": 0,
    "title": "string",
    "text": "string",
    "showToParents": false
  }],
  "publishAt": "null or 2019-06-18T12:28:47.421Z",
  "recipients": [{
    "externalId": "string",
    "type": "unknown"
  }],
  "attachments": [{
    "name": "string",
    "mimeType": "string",
    "dataBase64": "string"
  }]
}