{
  "_uri": "GET /api/framework-plan/{id}",
  "id": "string",
  "title": "string",
  "number": 0,
  "shortText": "string",
  "description": "string",
  "attachments": [{
    "id": "string",
    "mimeType": "string",
    "name": "string"
  }]
}